^C:\USERS\GABRIELISAAC\DOCUMENTS\VISUAL STUDIO 2013\PROJECTS\CONSOLEAPPLICATION1\CONSOLEAPPLICATION1\OPENCLTEST.CPP
/c /I"C:\Program Files (x86)\AMD APP SDK\2.9-1\\include" /Zi /nologo /W3 /WX- /sdl /Od /D WIN32 /D _DEBUG /D _CONSOLE /D _LIB /D _UNICODE /D UNICODE /Gm /EHsc /RTC1 /MDd /GS /fp:precise /Zc:wchar_t /Zc:forScope /Fo"X64\DEBUG\\" /Fd"X64\DEBUG\VC120.PDB" /Gd /TP C:\USERS\GABRIELISAAC\DOCUMENTS\VISUAL STUDIO 2013\PROJECTS\CONSOLEAPPLICATION1\CONSOLEAPPLICATION1\OPENCLTEST.CPP
^C:\USERS\GABRIELISAAC\DOCUMENTS\VISUAL STUDIO 2013\PROJECTS\CONSOLEAPPLICATION1\CONSOLEAPPLICATION1\SOURCE.CPP
/c /I"C:\Program Files (x86)\AMD APP SDK\2.9-1\\include" /Zi /nologo /W3 /WX- /sdl /Od /D WIN32 /D _DEBUG /D _CONSOLE /D _LIB /D _UNICODE /D UNICODE /Gm /EHsc /RTC1 /MDd /GS /fp:precise /Zc:wchar_t /Zc:forScope /Fo"X64\DEBUG\\" /Fd"X64\DEBUG\VC120.PDB" /Gd /TP C:\USERS\GABRIELISAAC\DOCUMENTS\VISUAL STUDIO 2013\PROJECTS\CONSOLEAPPLICATION1\CONSOLEAPPLICATION1\SOURCE.CPP
^C:\USERS\GABRIELISAAC\DOCUMENTS\VISUAL STUDIO 2013\PROJECTS\CONSOLEAPPLICATION1\CONSOLEAPPLICATION1\DEVICE_CHECK.CPP
/c /I"C:\Program Files (x86)\AMD APP SDK\2.9-1\\include" /Zi /nologo /W3 /WX- /sdl /Od /D WIN32 /D _DEBUG /D _CONSOLE /D _LIB /D _UNICODE /D UNICODE /Gm /EHsc /RTC1 /MDd /GS /fp:precise /Zc:wchar_t /Zc:forScope /Fo"X64\DEBUG\\" /Fd"X64\DEBUG\VC120.PDB" /Gd /TP C:\USERS\GABRIELISAAC\DOCUMENTS\VISUAL STUDIO 2013\PROJECTS\CONSOLEAPPLICATION1\CONSOLEAPPLICATION1\DEVICE_CHECK.CPP
^C:\USERS\GABRIELISAAC\DOCUMENTS\VISUAL STUDIO 2013\PROJECTS\CONSOLEAPPLICATION1\CONSOLEAPPLICATION1\TEST1.CPP
/c /I"C:\Program Files (x86)\AMD APP SDK\2.9-1\\include" /Zi /nologo /W3 /WX- /sdl /Od /D WIN32 /D _DEBUG /D _CONSOLE /D _LIB /D _UNICODE /D UNICODE /Gm /EHsc /RTC1 /MDd /GS /fp:precise /Zc:wchar_t /Zc:forScope /Fo"X64\DEBUG\\" /Fd"X64\DEBUG\VC120.PDB" /Gd /TP C:\USERS\GABRIELISAAC\DOCUMENTS\VISUAL STUDIO 2013\PROJECTS\CONSOLEAPPLICATION1\CONSOLEAPPLICATION1\TEST1.CPP
^C:\USERS\GABRIELISAAC\DESKTOP\ENTREGA PARCIAL HPC\CONSOLEAPPLICATION1\CONSOLEAPPLICATION1\TEST1.CPP
/c /I"C:\Program Files (x86)\AMD APP SDK\2.9-1\\include" /Zi /nologo /W3 /WX- /sdl /Od /D WIN32 /D _DEBUG /D _CONSOLE /D _LIB /D _UNICODE /D UNICODE /Gm /EHsc /RTC1 /MDd /GS /fp:precise /Zc:wchar_t /Zc:forScope /Fo"X64\DEBUG\\" /Fd"X64\DEBUG\VC120.PDB" /Gd /TP C:\USERS\GABRIELISAAC\DESKTOP\ENTREGA PARCIAL HPC\CONSOLEAPPLICATION1\CONSOLEAPPLICATION1\TEST1.CPP
^C:\USERS\GABRIELISAAC\DESKTOP\HPC\CONSOLEAPPLICATION1\CONSOLEAPPLICATION1\TEST1.CPP
/c /I"C:\Program Files (x86)\AMD APP SDK\2.9-1\\include" /Zi /nologo /W3 /WX- /sdl /Od /D WIN32 /D _DEBUG /D _CONSOLE /D _LIB /D _UNICODE /D UNICODE /Gm /EHsc /RTC1 /MDd /GS /fp:precise /Zc:wchar_t /Zc:forScope /Fo"X64\DEBUG\\" /Fd"X64\DEBUG\VC120.PDB" /Gd /TP C:\USERS\GABRIELISAAC\DESKTOP\HPC\CONSOLEAPPLICATION1\CONSOLEAPPLICATION1\TEST1.CPP
