^C:\USERS\GABRIELISAAC\DOCUMENTS\VISUAL STUDIO 2013\PROJECTS\OPENCVTTORIAL\OPENCVTTORIAL\MAIN.CPP
C:\USERS\GABRIELISAAC\DOCUMENTS\VISUAL STUDIO 2013\PROJECTS\OPENCVTTORIAL\OPENCVTTORIAL\DEBUG\VC120.PDB
C:\USERS\GABRIELISAAC\DOCUMENTS\VISUAL STUDIO 2013\PROJECTS\OPENCVTTORIAL\OPENCVTTORIAL\DEBUG\VC120.IDB
C:\USERS\GABRIELISAAC\DOCUMENTS\VISUAL STUDIO 2013\PROJECTS\OPENCVTTORIAL\OPENCVTTORIAL\DEBUG\MAIN.OBJ
